Orange County Private School Enrollment, 2016-17
…
What values does the Religious classificaiton and denomination columns have?

priv2 %>% count(Religious_Classification)

## # A tibble: 3 x 2
##   Religious_Classification     n
##   <chr>                    <int>
## 1 Non-religious             1162
## 2 Religious                 1824
## 3 <NA>                        90

priv2 %>% count(Religious_Classification,Religious_Denomination)

## # A tibble: 42 x 3
##    Religious_Classification Religious_Denomination                n
##    <chr>                    <chr>                             <int>
##  1 Non-religious            <NA>                               1162
##  2 Religious                Anglican                              2
##  3 Religious                Apostolic                            14
##  4 Religious                Assembly of God                      34
##  5 Religious                Baptist                             122
##  6 Religious                Buddhist                              3
##  7 Religious                Calvary Chapel                       37
##  8 Religious                Charismatic                           1
##  9 Religious                Christian and Missionary Alliance     2
## 10 Religious                Church of Christ                      7
## #  with 32 more rows
…
